Term	Overlap	P-value	Adjusted P-value	Old P-value	Old Adjusted P-value	Odds Ratio	Combined Score	Genes
Allograft Rejection WP2328	4/89	6.704539614916875E-4	0.04290854425202618	0	0	10.976332179930797	80.21015681684888	LRRK2;PRF1;HLA-C;GZMB
Corticotropin-releasing hormone signaling pathway WP2355	4/93	7.909892027736086E-4	0.04290854425202618	0	0	10.480898876404494	74.85695097789208	FOSL1;NFKBIA;ECE1;ARRB2
B Cell Receptor Signaling Pathway WP23	4/97	9.260836888926512E-4	0.04290854425202618	0	0	10.0280834914611	70.0416099428432	NFKBIA;CD79A;SH3BP2;PIP5K1B
Mammary gland development pathway - Puberty (Stage 2 of 4) WP2814	2/13	0.0014793370551065721	0.051406962664953385	0	0	41.588296760710556	270.9960468615092	FOSL1;ERBB2
RAC1/PAK1/p38/MMP2 Pathway WP3303	3/68	0.003464671599447828	0.09631787046464962	0	0	10.650805008944543	60.338274087322745	NFKBIA;TNIP1;ERBB2
Chemokine signaling pathway WP3929	4/164	0.006199798313817373	0.12430039367667198	0	0	5.809117647058824	29.529130576158316	NFKBIA;PREX1;ARRB2;PPBP
Apoptosis WP254	3/84	0.0062597320556597395	0.12430039367667198	0	0	8.540051679586563	43.328959046241025	NFKBIA;PRF1;GZMB
T-Cell Receptor and Co-stimulatory Signaling WP2583	2/29	0.007352627100605581	0.12775189587302196	0	0	16.929757343550445	83.17077828659637	NFKBIA;CALM2
Endothelin Pathways WP2197	2/33	0.00945263234157471	0.1459906550532094	0	0	14.742306266221728	68.7207007708125	ECE1;CALM2
miRNAs involvement in the immune response in sepsis WP4329	2/37	0.011786967516943251	0.14894440771410108	0	0	13.054844006568144	57.97343958731591	NFKBIA;GZMB
Melatonin metabolism and effects WP3298	2/37	0.011786967516943251	0.14894440771410108	0	0	13.054844006568144	57.97343958731591	ECE1;CALM2
DNA Damage Response (only ATM dependent) WP710	3/110	0.01305511303587511	0.1512217259988867	0	0	6.456422516844165	28.01167602259777	RBL2;FOSL1;ERBB2
Cell Cycle WP179	3/120	0.016459249460274092	0.1759873596136999	0	0	5.901610017889087	24.237131457594458	RBL2;BUB3;E2F4
NO/cGMP/PKG mediated Neuroprotection WP4008	2/47	0.01859111978436669	0.18378638310458492	0	0	10.148659003831417	40.44312915338846	NFKBIA;CALM2
Adipogenesis WP236	3/130	0.020315748711563247	0.18378638310458492	0	0	5.4341695660135505	21.17347492608057	RBL2;EGR2;E2F4
VEGFA-VEGFR2 Signaling Pathway WP3888	4/236	0.02115526711995222	0.18378638310458492	0	0	3.991683569979716	15.391398429541844	NFKBIA;NCL;SH2D2A;ARRB2
Wnt Signaling Pathway WP363	2/52	0.022480982114316633	0.18381508905235364	0	0	9.131494252873564	34.65480204013003	PIP5K1B;ARRB2
Brain-Derived Neurotrophic Factor (BDNF) signaling pathway WP2380	3/144	0.026480735067257413	0.20268463218277719	0	0	4.891142998515586	17.76139240172214	NFKBIA;EGR2;EEF2
Calcium Regulation in the Cardiac Cell WP536	3/149	0.028899073869317723	0.20268463218277719	0	0	4.7224434533290855	16.736083313583073	PRKAR1B;ARRB2;CALM2
Proteasome Degradation WP183	2/62	0.03115868774143609	0.20268463218277719	0	0	7.605747126436782	26.38176735052036	UBC;HLA-C
T-Cell antigen Receptor (TCR) pathway during Staphylococcus aureus infection WP3863	2/62	0.03115868774143609	0.20268463218277719	0	0	7.605747126436782	26.38176735052036	NFKBIA;CALM2
Myometrial Relaxation and Contraction Pathways WP289	3/156	0.0324753105764745	0.20268463218277719	0	0	4.504787961696306	15.439147850274194	PRKAR1B;ARRB2;CALM2
Sudden Infant Death Syndrome (SIDS) Susceptibility Pathways WP706	3/158	0.03353774489355306	0.20268463218277719	0	0	4.446211552888222	15.095260641962644	PRKAR1B;CREM;ECE1
Benzo(a)pyrene metabolism WP696	1/9	0.039351981534194815	0.21038174743281074	0	0	28.271306818181817	91.46358481064681	AKR1C3
Role Altered Glycolysation of MUC1 in Tumour Microenvironment WP4480	1/9	0.039351981534194815	0.21038174743281074	0	0	28.271306818181817	91.46358481064681	NFKBIA
Supression of HMGB1 mediated inflammation by THBD WP4479	1/9	0.039351981534194815	0.21038174743281074	0	0	28.271306818181817	91.46358481064681	NFKBIA
Prolactin Signaling Pathway WP2037	2/76	0.045130191441490705	0.23233691149508176	0	0	6.162472817645232	19.092596843695926	NFKBIA;ERBB2
PTF1A related regulatory pathway WP4147	1/11	0.04788674820170976	0.23772350000134487	0	0	22.614772727272726	68.72440526863295	RBPJ
MAPK  and NFkB Signalling Pathways Inhibited by Yersinia YopJ WP3849	1/12	0.05212597345862037	0.24714031197797556	0	0	20.55785123966942	60.72978231311063	NFKBIA
ncRNAs involved in Wnt signaling in hepatocellular carcinoma WP4336	2/86	0.056263866722923495	0.24714031197797556	0	0	5.426108374384237	15.614726984034691	FOSL1;SERPINF1
Transcriptional cascade regulating adipogenesis WP4211	1/13	0.056346535448802366	0.24714031197797556	0	0	18.84375	54.199044294763084	EGR2
Hair Follicle Development: Cytodifferentiation (Part 3 of 3) WP2840	2/87	0.05742543594072767	0.24714031197797556	0	0	5.362001352265044	15.32067455246556	EGR2;RBPJ
Circadian rhythm related genes WP3594	3/201	0.060625387587563105	0.24714031197797556	0	0	3.4730443974630023	9.735087704364147	UBC;PRF1;CREM
T-Cell antigen Receptor (TCR)  Signaling Pathway WP69	2/90	0.0609599983766232	0.24714031197797556	0	0	5.178422152560084	14.486829614916266	NFKBIA;CD247
G Protein Signaling Pathways WP35	2/93	0.06456735644791026	0.24714031197797556	0	0	5.006947075912593	13.719266880015875	PRKAR1B;CALM2
Regulation of sister chromatid separation at the metaphase-anaphase transition WP4240	1/15	0.06473199395678342	0.24714031197797556	0	0	16.150162337662337	44.211064597664894	BUB3
LncRNA involvement in canonical Wnt signaling and colorectal cancer WP4258	2/94	0.06578555067039638	0.24714031197797556	0	0	4.9522738630684655	13.476895532994504	FOSL1;SERPINF1
ID signaling pathway WP53	1/16	0.0688970518062023	0.2476361926483305	0	0	15.072727272727272	40.321684143986595	RBL2
Human Complement System WP2806	2/97	0.06948607485300831	0.2476361926483305	0	0	4.795160314579553	12.786913114856555	ITGB2;ARRB2
Ciliary landscape WP4352	3/216	0.07189229675561927	0.2476361926483305	0	0	3.2260072060268588	8.492741917173168	WDR26;NUP88;CALM2
Cells and Molecules involved in local acute inflammatory response  WP4493	1/17	0.07304376905454353	0.2476361926483305	0	0	14.129971590909092	36.97384637926978	ITGB2
Wnt Signaling Pathway and Pluripotency WP399	2/102	0.07580136988597623	0.2508664384321594	0	0	4.554252873563218	11.74832793739907	FOSL1;LRRK2
Farnesoid X Receptor  Pathway WP2879	1/19	0.081282500607778	0.26275040894142193	0	0	12.558712121212121	31.520163750462697	FKBP5
Nanomaterial induced apoptosis WP2507	1/20	0.08537467354402693	0.263712880502661	0	0	11.897129186602871	29.27533461302574	PRF1
Hematopoietic Stem Cell Gene Regulation by GABP alpha/beta Complex WP3657	1/20	0.08537467354402693	0.263712880502661	0	0	11.897129186602871	29.27533461302574	GZMB
Wnt Signaling WP428	2/115	0.09301481393987522	0.27077497618467	0	0	4.027667582138134	9.565696446338286	FOSL1;SERPINF1
Globo Sphingolipid Metabolism WP1424	1/22	0.09350502774722416	0.27077497618467	0	0	10.762987012987013	25.505481613016396	GALNT2
Vitamin D in inflammatory diseases WP4482	1/22	0.09350502774722416	0.27077497618467	0	0	10.762987012987013	25.505481613016396	NFKBIA
MAPK Signaling Pathway WP382	3/246	0.09697884333019653	0.27117055636738024	0	0	2.8234280792420328	6.58779867314773	LRRK2;CACNA2D2;ARRB2
EBV LMP1 signaling WP262	1/23	0.09754336559977708	0.27117055636738024	0	0	10.273243801652892	23.910545778237577	NFKBIA
Hippo-Merlin Signaling Dysregulation WP4541	2/120	0.09991220171318037	0.27230972623788374	0	0	3.8560296123124878	8.882223318481465	PRKAR1B;ITGB2
Physiological and Pathological Hypertrophy  of the Heart WP1528	1/25	0.10556675179604057	0.2821880480701853	0	0	9.416193181818182	21.171479933603603	CALM2
Canonical  and Non-canonical Notch signaling WP3845	1/27	0.11351960008435957	0.28844821285210476	0	0	8.690996503496503	18.909694364771376	RBPJ
TGF-beta Signaling Pathway WP366	2/132	0.11701450266595173	0.28844821285210476	0	0	3.4979664014146774	7.504737891968539	RBL2;E2F4
TLR4 Signaling and Tolerance WP3851	1/28	0.11746976428394924	0.28844821285210476	0	0	8.368686868686869	17.922164754149428	NFKBIA
Cannabinoid receptor signaling WP3869	1/29	0.12140252351049088	0.28844821285210476	0	0	8.06939935064935	17.015487408196194	PRKAR1B
miRs in Muscle Cell Differentiation WP2012	1/29	0.12140252351049088	0.28844821285210476	0	0	8.06939935064935	17.015487408196194	PRKAR1B
Lipid Metabolism Pathway WP3965	1/29	0.12140252351049088	0.28844821285210476	0	0	8.06939935064935	17.015487408196194	PRKAR1B
Extracellular vesicle-mediated signaling in recipient cells WP2870	1/30	0.12531795355668543	0.28844821285210476	0	0	7.790752351097178	16.18062246106182	ERBB2
Monoamine Transport WP727	1/32	0.13309712776754717	0.28844821285210476	0	0	7.287390029325513	14.696305546345435	RBL2
White fat cell differentiation WP4149	1/32	0.13309712776754717	0.28844821285210476	0	0	7.287390029325513	14.696305546345435	EGR2
Initiation of transcription and translation elongation at the HIV-1 LTR WP3414	1/32	0.13309712776754717	0.28844821285210476	0	0	7.287390029325513	14.696305546345435	NFKBIA
Mammary gland development pathway - Pregnancy and lactation (Stage 3 of 4) WP2817	1/32	0.13309712776754717	0.28844821285210476	0	0	7.287390029325513	14.696305546345435	ERBB2
Resistin as a regulator of inflammation WP4481	1/33	0.13696102192977636	0.28844821285210476	0	0	7.0593039772727275	14.034312135800631	NFKBIA
Signal transduction through IL1R WP4496	1/33	0.13696102192977636	0.28844821285210476	0	0	7.0593039772727275	14.034312135800631	NFKBIA
miRNA regulation of prostate cancer signaling pathways WP3981	1/33	0.13696102192977636	0.28844821285210476	0	0	7.0593039772727275	14.034312135800631	NFKBIA
Integrated Breast Cancer Pathway WP1984	2/151	0.1454269197494577	0.29707530720228575	0	0	3.0489855743269305	5.878692948893148	FOSL1;PLK3
Fibrin Complement Receptor 3 Signaling Pathway WP4136	1/37	0.15224704731157518	0.29707530720228575	0	0	6.273674242424242	11.808628150096421	ITGB2
Parkinsons Disease Pathway WP2371	1/38	0.15602653445049328	0.29707530720228575	0	0	6.103808353808354	11.339222970797806	LRRK2
PDGF Pathway WP2526	1/39	0.15978936023630683	0.29707530720228575	0	0	5.942882775119617	10.898645765842279	NFKBIA
G13 Signaling Pathway WP524	1/39	0.15978936023630683	0.29707530720228575	0	0	5.942882775119617	10.898645765842279	CALM2
EGF/EGFR Signaling Pathway WP437	2/162	0.1624736258776008	0.29707530720228575	0	0	2.837787356321839	5.156939539504748	SH2D2A;ERBB2
ATM Signaling Pathway WP2516	1/40	0.16353559727600164	0.29707530720228575	0	0	5.79020979020979	10.484475259971711	NFKBIA
Bladder Cancer WP2828	1/40	0.16353559727600164	0.29707530720228575	0	0	5.79020979020979	10.484475259971711	ERBB2
Glycogen Synthesis and Degradation WP500	1/40	0.16353559727600164	0.29707530720228575	0	0	5.79020979020979	10.484475259971711	CALM2
Microglia Pathogen Phagocytosis Pathway WP3937	1/40	0.16353559727600164	0.29707530720228575	0	0	5.79020979020979	10.484475259971711	ITGB2
Nucleotide-binding Oligomerization Domain (NOD) pathway WP1433	1/41	0.16726531789712742	0.29707530720228575	0	0	5.645170454545455	10.094547017363173	NFKBIA
Common Pathways Underlying Drug Addiction WP2636	1/42	0.170978594073258	0.29707530720228575	0	0	5.50720620842572	9.72692073864062	CALM2
DNA Replication WP466	1/42	0.170978594073258	0.29707530720228575	0	0	5.50720620842572	9.72692073864062	UBC
TNF related weak inducer of apoptosis (TWEAK) Signaling Pathway WP2036	1/42	0.170978594073258	0.29707530720228575	0	0	5.50720620842572	9.72692073864062	NFKBIA
Hedgehog Signaling Pathway WP4249	1/44	0.1783560995279207	0.30482946383642084	0	0	5.250528541226216	9.051770322881529	ARRB2
Notch Signaling WP268	1/45	0.18202047121167578	0.30482946383642084	0	0	5.130940082644628	8.741254849452304	RBPJ
Prostaglandin Synthesis and Regulation WP98	1/45	0.18202047121167578	0.30482946383642084	0	0	5.130940082644628	8.741254849452304	AKR1C3
Selenium Metabolism and Selenoproteins WP28	1/46	0.1856686833588573	0.3059629312252521	0	0	5.016666666666667	8.44702052052336	CREM
Thymic Stromal LymphoPoietin (TSLP) Signaling Pathway WP2203	1/47	0.18930080636958044	0.3059629312252521	0	0	4.907361660079052	8.167900888313985	NFKBIA
Mechanoregulation and pathology of YAP/TAZ via Hippo and non-Hippo mechanisms WP4534	1/47	0.18930080636958044	0.3059629312252521	0	0	4.907361660079052	8.167900888313985	ITGB2
Vitamin D Receptor Pathway WP2877	2/182	0.19429186729639764	0.31040763738431926	0	0	2.5199233716475096	4.128626777934195	NINJ1;BTLA
Structural Pathway of Interleukin 1 (IL-1) WP2637	1/49	0.19651706539438918	0.31040763738431926	0	0	4.7024147727272725	7.650857071596247	NFKBIA
Photodynamic therapy-induced AP-1 survival signaling. WP3611	1/50	0.20010134077429026	0.3125178243553522	0	0	4.6062152133580705	7.411084001248333	BCL3
Translation Factors WP107	1/52	0.20722252957067647	0.3153373366281478	0	0	4.425133689839572	6.964992454417293	EEF2
Apoptosis-related network due to altered Notch3 in ovarian cancer WP2864	1/53	0.21075958057773525	0.3153373366281478	0	0	4.339816433566433	6.757255731043813	BCL3
IL-4 Signaling Pathway WP395	1/54	0.2142810272062562	0.3153373366281478	0	0	4.257718696397942	6.55887478187328	NFKBIA
Cardiac Hypertrophic Response WP2795	1/55	0.21778693752735387	0.3153373366281478	0	0	4.178661616161616	6.369275012132357	CALM2
Pathogenic Escherichia coli infection WP2272	1/55	0.21778693752735387	0.3153373366281478	0	0	4.178661616161616	6.369275012132357	NCL
RANKL/RANK (Receptor activator of NFKB (ligand)) Signaling Pathway WP2018	1/55	0.21778693752735387	0.3153373366281478	0	0	4.178661616161616	6.369275012132357	NFKBIA
IL-1 signaling pathway WP195	1/55	0.21778693752735387	0.3153373366281478	0	0	4.178661616161616	6.369275012132357	NFKBIA
Preimplantation Embryo WP3527	1/58	0.22821212699408147	0.3197572656056712	0	0	3.958133971291866	5.848062596467224	ZFP36
Oxidative phosphorylation WP623	1/60	0.23508580645925273	0.3197572656056712	0	0	3.8235747303543914	5.535789456285142	GZMB
RIG-I-like Receptor Signaling WP3865	1/60	0.23508580645925273	0.3197572656056712	0	0	3.8235747303543914	5.535789456285142	NFKBIA
Notch Signaling Pathway WP61	1/61	0.23849991198169293	0.3197572656056712	0	0	3.759659090909091	5.389043975331155	RBPJ
TYROBP Causal Network WP3945	1/61	0.23849991198169293	0.3197572656056712	0	0	3.759659090909091	5.389043975331155	ITGB2
MECP2 and Associated Rett Syndrome WP3584	1/62	0.24189894948713814	0.3197572656056712	0	0	3.697839046199702	5.248103353581816	FKBP5
Endometrial cancer WP4155	1/63	0.24528298471335783	0.3197572656056712	0	0	3.6380131964809386	5.112655271210953	ERBB2
Genotoxicity pathway WP4286	1/63	0.24528298471335783	0.3197572656056712	0	0	3.6380131964809386	5.112655271210953	PLK3
Endochondral Ossification WP474	1/64	0.24865208314624695	0.3197572656056712	0	0	3.58008658008658	4.982408698951666	CALM2
Oncostatin M Signaling Pathway WP2374	1/65	0.2520063099873694	0.3197572656056712	0	0	3.5239701704545454	4.857092146086011	NFKBIA
Pathways Affected in Adenoid Cystic Carcinoma WP3651	1/65	0.2520063099873694	0.3197572656056712	0	0	3.5239701704545454	4.857092146086011	ERBB2
AGE/RAGE pathway WP2324	1/66	0.255345730087982	0.3197572656056712	0	0	3.4695804195804194	4.7364520772780585	NFKBIA
Non-small cell lung cancer WP4255	1/66	0.255345730087982	0.3197572656056712	0	0	3.4695804195804194	4.7364520772780585	ERBB2
Association Between Physico-Chemical Features and Toxicity Associated Pathways WP3680	1/66	0.255345730087982	0.3197572656056712	0	0	3.4695804195804194	4.7364520772780585	ERBB2
Human Thyroid Stimulating Hormone (TSH) signaling pathway WP2032	1/66	0.255345730087982	0.3197572656056712	0	0	3.4695804195804194	4.7364520772780585	RBL2
AMP-activated Protein Kinase (AMPK) Signaling WP1403	1/69	0.26527579495024384	0.3292262098043205	0	0	3.31600935828877	4.400295535578544	EEF2
Arrhythmogenic Right Ventricular Cardiomyopathy WP2118	1/74	0.28153574565871053	0.34631388182797135	0	0	3.088107098381071	3.914162952127173	CACNA2D2
Leptin signaling pathway WP2034	1/76	0.28793964170883174	0.35108429997831236	0	0	3.0054545454545454	3.7418041277126273	ERBB2
Signaling Pathways in Glioblastoma WP2261	1/82	0.30681462733813913	0.36869830174456986	0	0	2.781986531986532	3.2869491736198495	ERBB2
Alzheimers Disease WP2059	1/83	0.30991199658544977	0.36869830174456986	0	0	2.7479212860310422	3.2190988407985026	CALM2
Viral Acute Myocarditis WP4298	1/84	0.3129956806176924	0.36869830174456986	0	0	2.7146768893756845	3.153276072945632	ITGB2
MicroRNAs in cardiomyocyte hypertrophy WP1544	1/84	0.3129956806176924	0.36869830174456986	0	0	2.7146768893756845	3.153276072945632	CALM2
Pancreatic adenocarcinoma pathway WP4263	1/89	0.32821090580714035	0.38337240258144967	0	0	2.559788223140496	2.8518571712631577	ERBB2
Apoptosis Modulation and Signaling WP1772	1/91	0.3342032719304514	0.3839194611432458	0	0	2.502651515151515	2.742920757507892	NFKBIA
ErbB Signaling Pathway WP673	1/91	0.3342032719304514	0.3839194611432458	0	0	2.502651515151515	2.742920757507892	ERBB2
TNF alpha Signaling Pathway WP231	1/92	0.33717960477045333	0.38416364805813946	0	0	2.475024975024975	2.6906975097608568	NFKBIA
Pathways Regulating Hippo Signaling WP4540	1/98	0.35476332161101654	0.40091139596692116	0	0	2.321227741330834	2.4054985485233598	PRKAR1B
Neural Crest Differentiation WP2064	1/101	0.36338141098655935	0.40408012901705403	0	0	2.25125	2.2789455019176477	RBPJ
Integrin-mediated Cell Adhesion WP185	1/101	0.36338141098655935	0.40408012901705403	0	0	2.25125	2.2789455019176477	ITGB2
Toll-like Receptor Signaling Pathway WP75	1/103	0.3690634721267987	0.4071414494097224	0	0	2.206885026737968	2.199793507468689	NFKBIA
Spinal Cord Injury WP2431	1/118	0.41011027268614164	0.4488608496328637	0	0	1.9224941724941724	1.713575188304793	ZFP36
Nuclear Receptors Meta-Pathway WP2882	2/319	0.4163647877011924	0.4521461366442636	0	0	1.4209362195873672	1.2450150929518276	TSC22D3;FKBP5
Ebola Virus Pathway on Host WP4217	1/129	0.4385222144438252	0.4725161845557496	0	0	1.7563032670454546	1.4477994801226213	HLA-C
Regulation of toll-like receptor signaling pathway WP1449	1/139	0.4631747505785871	0.49524069484941236	0	0	1.6282114624505928	1.2531543605591358	NFKBIA
Endoderm Differentiation WP2853	1/141	0.46797526348631685	0.4965539055312828	0	0	1.604788961038961	1.2185801933261362	FOXN3
Regulation of Actin Cytoskeleton WP51	1/150	0.4890575798295302	0.5149924514871568	0	0	1.507169005491153	1.0780403801493912	PIP5K1B
Breast cancer pathway WP4262	1/154	0.49816029893883473	0.5206336958834439	0	0	1.4674688057040999	1.0225812308011228	ERBB2
Epithelial to mesenchymal transition in colorectal cancer WP4239	1/159	0.5093134914085471	0.5283177261625973	0	0	1.4206703107019563	0.9585142615546015	RBPJ
Metapathway biotransformation Phase I and II WP702	1/183	0.5595288465436701	0.5738932228248779	0	0	1.2318306693306693	0.7152750364639366	AKR1C3
Ras Signaling WP4223	1/184	0.5615070381595928	0.5738932228248779	0	0	1.225037257824143	0.7070069412798299	CALM2
Focal Adhesion WP306	1/198	0.5882966327203135	0.596884904730829	0	0	1.1371712044300877	0.6032965943094887	ERBB2
Focal Adhesion-PI3K-Akt-mTOR-signaling pathway WP3932	1/303	0.743771374760248	0.7491610224034383	0	0	0.7378461770018061	0.2184183935935381	ITGB2
PI3K-Akt Signaling Pathway WP4172	1/340	0.7833342467889345	0.7833342467889345	0	0	0.6560740144810941	0.16021051515087556	RBL2
